# File produced by Open Asset Import Library (http://www.assimp.sf.net)
# (assimp v3.1.187496374)

mtllib Croix_de_jesus_Chist4495c1784ce58de4c10f691d134f1851-croix.obj.mtl

# 72 vertex positions
v  -21.2597 7.01406 7.14705
v  -21.3449 -7.12594 6.5
v  -21.2597 -7.12594 7.14705
v  -21.01 7.01406 7.75
v  -21.3449 7.01406 6.5
v  -21.2597 -7.12594 5.85295
v  4.08696 -33.6659 13
v  4.08696 -7.12594 -2.25597e-14
v  4.08696 -33.6659 -2.25597e-14
v  4.08696 -7.12594 13
v  73.887 -7.12594 -2.25597e-14
v  73.887 -7.12594 13
v  73.887 7.01406 9.86988e-14
v  73.887 7.01406 13
v  4.08696 7.01406 9.86988e-14
v  4.08696 7.01406 13
v  4.08696 33.5541 -2.25597e-14
v  4.08696 33.5541 13
v  -7.57674 33.5541 -1.01488e-14
v  -7.57674 33.5541 13
v  -7.57674 7.01406 13
v  -7.57674 7.01406 9.86988e-14
v  -18.1978 7.01406 4.08519
v  -18.8449 7.01406 4
v  -17.5949 7.01406 4.33494
v  -17.0771 7.01406 4.73223
v  -19.4919 7.01406 4.08519
v  -30.113 7.01406 -2.25597e-14
v  -16.6798 7.01406 5.25
v  -16.4301 7.01406 5.85295
v  -16.3449 7.01406 6.5
v  -16.4301 7.01406 7.14705
v  -16.6798 7.01406 7.75
v  -17.0771 7.01406 8.26777
v  -17.5949 7.01406 8.66506
v  -18.1978 7.01406 8.91481
v  -18.8449 7.01406 9
v  -30.113 7.01406 13
v  -19.4919 7.01406 8.91481
v  -20.0949 7.01406 8.66506
v  -20.6127 7.01406 8.26777
v  -21.2597 7.01406 5.85295
v  -21.01 7.01406 5.25
v  -20.6127 7.01406 4.73223
v  -20.0949 7.01406 4.33494
v  -30.113 -7.12594 13
v  -30.113 -7.12594 -2.53797e-14
v  -7.57674 -7.12594 9.86988e-14
v  -7.57674 -33.6659 13
v  -7.57674 -33.6659 2.39697e-13
v  -7.57674 -7.12594 13
v  -19.4919 -7.12594 4.08519
v  -20.0949 -7.12594 4.33494
v  -20.6127 -7.12594 4.73223
v  -18.8449 -7.12594 4
v  -18.1978 -7.12594 4.08519
v  -17.0771 -7.12594 4.73223
v  -17.5949 -7.12594 4.33494
v  -16.6798 -7.12594 5.25
v  -16.4301 -7.12594 5.85295
v  -16.3449 -7.12594 6.5
v  -16.4301 -7.12594 7.14705
v  -16.6798 -7.12594 7.75
v  -17.0771 -7.12594 8.26777
v  -17.5949 -7.12594 8.66506
v  -18.1978 -7.12594 8.91481
v  -18.8449 -7.12594 9
v  -19.4919 -7.12594 8.91481
v  -20.0949 -7.12594 8.66506
v  -20.6127 -7.12594 8.26777
v  -21.01 -7.12594 7.75
v  -21.01 -7.12594 5.25

# 0 UV coordinates

# 35 vertex normals
vn -0.965926 -4.93964e-31 0.258819
vn -1 1.54143e-44 -8.85764e-15
vn -1 0 0
vn 0 1 -1.73536e-15
vn 0 -1 1.73536e-15
vn 1.82737e-30 -1 1.73536e-15
vn 1 0 0
vn -9.36126e-30 -1 1.73536e-15
vn 1 5.58409e-15 -9.14441e-30
vn 6.76964e-15 1 -1.73536e-15
vn -5.0052e-16 1 -1.73536e-15
vn 7.79059e-17 -1.35466e-15 -1
vn -0.5 -1.65284e-30 0.866025
vn -0.707107 -1.34954e-30 0.707107
vn 0.5 1.65284e-30 -0.866025
vn 0.258819 1.8435e-30 -0.965926
vn 0.965926 -4.93964e-31 0.258819
vn 0.866025 -9.54265e-31 0.5
vn -0.965926 4.93964e-31 -0.258819
vn -0.866025 9.54265e-31 -0.5
vn -0.5 1.65284e-30 -0.866025
vn -0.707107 1.34954e-30 -0.707107
vn 0.707107 1.34954e-30 -0.707107
vn 0.707107 -1.34954e-30 0.707107
vn 0.5 -1.65284e-30 0.866025
vn 0.258819 -1.8435e-30 0.965926
vn -5.34667e-15 -1.90853e-30 1
vn -0.866025 -9.54265e-31 0.5
vn 0.866025 9.54265e-31 -0.5
vn -0.258819 -1.8435e-30 0.965926
vn 5.34667e-15 1.90853e-30 -1
vn 1 -1.54143e-44 8.92002e-15
vn 0.965926 4.93964e-31 -0.258819
vn -0.258819 1.8435e-30 -0.965926
vn -7.79059e-17 1.35466e-15 1

# Mesh 'croix' with 144 faces
g croix
usemtl DefaultMaterial
f  1//1 2//1 3//1
f  3//1 4//1 1//1
f  2//2 1//2 5//2
f  5//2 6//2 2//2
f  7//3 8//3 9//3
f  8//3 7//3 10//3
f  10//4 11//4 8//4
f  11//4 10//4 12//4
f  12//3 13//3 11//3
f  13//3 12//3 14//3
f  14//5 15//5 13//5
f  15//5 14//5 16//5
f  16//3 17//3 15//3
f  17//3 16//3 18//3
f  18//6 19//6 17//6
f  19//6 18//6 20//6
f  19//7 21//7 22//7
f  21//7 19//7 20//7
f  22//8 23//8 24//8
f  23//8 22//8 25//8
f  25//8 22//8 26//8
f  26//8 22//8 21//8
f  27//8 28//8 22//8
f  27//8 22//8 24//8
f  26//8 21//8 29//8
f  29//8 21//8 30//8
f  30//8 21//8 31//8
f  31//8 21//8 32//8
f  32//8 21//8 33//8
f  33//8 21//8 34//8
f  34//8 21//8 35//8
f  35//8 21//8 36//8
f  36//8 21//8 37//8
f  37//8 21//8 38//8
f  38//8 39//8 37//8
f  38//8 40//8 39//8
f  38//8 41//8 40//8
f  38//8 4//8 41//8
f  38//8 1//8 4//8
f  38//8 5//8 1//8
f  38//8 42//8 5//8
f  38//8 43//8 42//8
f  38//8 44//8 43//8
f  28//8 44//8 38//8
f  44//8 28//8 45//8
f  45//8 28//8 27//8
f  28//9 46//9 47//9
f  46//9 28//9 38//9
f  48//7 49//7 50//7
f  49//7 48//7 51//7
f  50//10 7//10 9//10
f  7//10 50//10 49//10
f  47//11 52//11 48//11
f  52//11 47//11 53//11
f  53//11 47//11 54//11
f  54//11 47//11 46//11
f  48//11 52//11 55//11
f  56//11 48//11 55//11
f  48//11 57//11 51//11
f  57//11 48//11 58//11
f  58//11 48//11 56//11
f  51//11 57//11 59//11
f  51//11 59//11 60//11
f  51//11 60//11 61//11
f  51//11 61//11 62//11
f  51//11 62//11 63//11
f  51//11 63//11 64//11
f  51//11 64//11 65//11
f  51//11 65//11 66//11
f  51//11 66//11 67//11
f  68//11 46//11 67//11
f  51//11 67//11 46//11
f  69//11 46//11 68//11
f  70//11 46//11 69//11
f  71//11 46//11 70//11
f  3//11 46//11 71//11
f  2//11 46//11 3//11
f  6//11 46//11 2//11
f  54//11 46//11 72//11
f  72//11 46//11 6//11
f  14//12 10//12 16//12
f  10//12 14//12 12//12
f  7//12 16//12 10//12
f  7//12 18//12 16//12
f  49//12 18//12 7//12
f  18//12 21//12 20//12
f  21//12 18//12 51//12
f  51//12 18//12 49//12
f  21//12 46//12 38//12
f  46//12 21//12 51//12
f  69//13 41//13 70//13
f  41//14 69//14 40//14
f  41//14 71//14 70//14
f  25//15 56//15 23//15
f  56//16 25//16 58//16
f  32//17 63//17 62//17
f  62//17 31//17 32//17
f  63//18 32//18 33//18
f  33//18 64//18 63//18
f  6//19 5//19 42//19
f  42//19 72//19 6//19
f  72//20 42//20 43//20
f  43//20 54//20 72//20
f  45//21 54//21 44//21
f  54//22 45//22 53//22
f  54//22 43//22 44//22
f  26//23 58//23 25//23
f  26//23 59//23 57//23
f  58//15 26//15 57//15
f  64//24 35//24 65//24
f  64//24 33//24 34//24
f  35//25 64//25 34//25
f  66//26 37//26 67//26
f  37//27 66//27 36//27
f  71//28 41//28 4//28
f  4//28 3//28 71//28
f  59//29 26//29 29//29
f  29//29 60//29 59//29
f  67//27 39//27 68//27
f  39//30 67//30 37//30
f  68//30 40//30 69//30
f  40//13 68//13 39//13
f  23//16 55//16 24//16
f  55//31 23//31 56//31
f  65//25 36//25 66//25
f  36//26 65//26 35//26
f  31//32 62//32 61//32
f  61//32 30//32 31//32
f  30//33 61//33 60//33
f  60//33 29//33 30//33
f  24//31 52//31 27//31
f  52//34 24//34 55//34
f  27//34 53//34 45//34
f  53//21 27//21 52//21
f  11//35 15//35 8//35
f  15//35 11//35 13//35
f  17//35 8//35 15//35
f  17//35 9//35 8//35
f  19//35 9//35 17//35
f  9//35 48//35 50//35
f  48//35 9//35 22//35
f  22//35 9//35 19//35
f  22//35 47//35 48//35
f  47//35 22//35 28//35

